Lecture 4 - EDA
…
Two categorical variables

Comparing how color and cut covary, we can simply calculate the number of cases

diamonds %>% 
  count(color, cut, sort = TRUE)

## # A tibble: 35 x 3
##    color cut           n
##    <ord> <ord>     <int>
##  1 G     Ideal      4884
##  2 E     Ideal      3903
##  3 F     Ideal      3826
##  4 H     Ideal      3115
##  5 G     Premium    2924
##  6 D     Ideal      2834
##  7 E     Very Good  2400
##  8 H     Premium    2360
##  9 E     Premium    2337
## 10 F     Premium    2331
## # ... with 25 more rows
…
Solution for Titanic question 3

titanic_df <-
  titanic_train %>% 
  as_tibble() %>% 
  filter(Parch == 0 & SibSp == 0) %>% 
  select(PassengerId, Sex, Age, Pclass, Fare, Survived) %>% 
  group_by(Pclass) %>% 
  mutate(med_price = median(Fare)) %>% 
  ungroup()

titanic_df

## # A tibble: 537 x 7
##    PassengerId Sex      Age Pclass  Fare Survived med_price
##          <int> <chr>  <dbl>  <int> <dbl>    <int>     <dbl>
##  1           3 female    26      3  7.92        1      7.90
##  2           5 male      35      3  8.05        0      7.90
##  3           6 male      NA      3  8.46        0      7.90
##  4           7 male      54      1 51.9         0     31   
##  5          12 female    58      1 26.6         1     31   
##  6          13 male      20      3  8.05        0      7.90
##  7          15 female    14      3  7.85        0      7.90
##  8          16 female    55      2 16           1     13   
##  9          18 male      NA      2 13           1     13   
## 10          20 female    NA      3  7.22        1      7.90
## # ... with 527 more rows
